{
  "apiUrl": "https://api.f5s.co/",
  "firebase": {
    "apiKey": "XXXXXXXXXXXXXXXXXXXXXXX",
    "authDomain": "XXXXXXXXXXXXXXXXXXXXXXX.firebaseapp.com",
    "databaseURL": "https://XXXXXXXXXXXXXXXXXXXXXXX.firebaseio.com",
    "projectId": "XXXXXXXXXXXXXXXXXXXXXXX",
    "storageBucket": "XXXXXXXXXXXXXXXXXXXXXXX.appspot.com",
    "messagingSenderId": "XXXXXXXXXXXXXXXXXXXXXXX",
    "appId": "XXXXXXXXXXXXXXXXXXXXXXX",
    "measurementId": "XXXXXXXXXXXXXXXXXXXXXXX"
  }
}